Time : 05:32:21
SQLSTATE[42000]: Syntax error or access violation: 1064 You have an error in your SQL syntax; check the manual that corresponds to your MySQL server version for the right syntax to use near '' at line 1
Raw SQL : SELECT COUNT(*) as num FROM

Time : 05:31:26
SQLSTATE[42000]: Syntax error or access violation: 1064 You have an error in your SQL syntax; check the manual that corresponds to your MySQL server version for the right syntax to use near '' at line 1
Raw SQL : SELECT COUNT(*) as num FROM

Time : 05:18:23
SQLSTATE[42000]: Syntax error or access violation: 1064 You have an error in your SQL syntax; check the manual that corresponds to your MySQL server version for the right syntax to use near '' at line 1
Raw SQL : SELECT COUNT(*) as num FROM
